[gd_scene load_steps=4 format=2]

[ext_resource path="res://Scripts/Enemy.gd" type="Script" id=1]
[ext_resource path="res://Sprites/png/enemyShip.png" type="Texture" id=2]

[sub_resource type="RectangleShape2D" id=1]

custom_solver_bias = 0.0
extents = Vector2( 92.2906, 46.3021 )

[node name="Enemy" type="Area2D" groups=[
"enemy",
]]

position = Vector2( 581.502, 261.15 )
scale = Vector2( 0.5, 0.5 )
input_pickable = true
gravity_vec = Vector2( 0, 1 )
gravity = 98.0
linear_damp = 0.1
angular_damp = 1.0
audio_bus_override = false
audio_bus_name = "Master"
script = ExtResource( 1 )
_sections_unfolded = [ "Transform" ]
speed = 100
forward_step = 30

[node name="Sprite" type="Sprite" parent="." index="0"]

texture = ExtResource( 2 )

[node name="CollisionShape2D" type="CollisionShape2D" parent="." index="1"]

position = Vector2( 0.0744171, -1.63695 )
scale = Vector2( 0.5, 0.5 )
shape = SubResource( 1 )
_sections_unfolded = [ "Transform" ]


